<?xml version="1.0" encoding="UTF-8"?>
<CustomTab xmlns="http://soap.sforce.com/2006/04/metadata">
    <frameHeight>600</frameHeight>
    <hasSidebar>false</hasSidebar>
    <label>webtab1</label>
    <mobileReady>false</mobileReady>
    <motif>Custom47: Chess piece</motif>
    <url>https://abc.com</url>
    <urlEncodingKey>UTF-8</urlEncodingKey>
</CustomTab>
